…
<img src="eda_files/figure-gfm/unnamed-chunk-5-1.png" width="90%" />

## Grouping

``` r
weather_df |>
  group_by(name, month)
```

    ## # A tibble: 1,914 × 7
    ## # Groups:   name, month [63]
    ##    name           id          date        prcp  tmax  tmin month     
    ##    <chr>          <chr>       <date>     <dbl> <dbl> <dbl> <date>    
    ##  1 CentralPark_NY USW00094728 2022-01-01   201  13.3  10   2022-01-01
    ##  2 CentralPark_NY USW00094728 2022-01-02    10  15     2.8 2022-01-01
    ##  3 CentralPark_NY USW00094728 2022-01-03     0   2.8  -5.5 2022-01-01
    ##  4 CentralPark_NY USW00094728 2022-01-04     0   1.1  -7.1 2022-01-01
    ##  5 CentralPark_NY USW00094728 2022-01-05    58   8.3  -0.5 2022-01-01
    ##  6 CentralPark_NY USW00094728 2022-01-06     0   5     1.1 2022-01-01
    ##  7 CentralPark_NY USW00094728 2022-01-07    97   1.1  -3.8 2022-01-01
    ##  8 CentralPark_NY USW00094728 2022-01-08     0  -1    -6.6 2022-01-01
    ##  9 CentralPark_NY USW00094728 2022-01-09    25   4.4  -1.6 2022-01-01
    ## 10 CentralPark_NY USW00094728 2022-01-10     0   4.4  -4.3 2022-01-01
    ## # ℹ 1,904 more rows

## Counting

``` r
weather_df |>
  group_by(name, month) |>
  summarize(n_obs = n())
```

    ## `summarise()` has grouped output by 'name'. You can override using the
    ## `.groups` argument.

    ## # A tibble: 63 × 3
    ## # Groups:   name [3]
    ##    name           month      n_obs
    ##    <chr>          <date>     <int>
    ##  1 CentralPark_NY 2022-01-01    31
    ##  2 CentralPark_NY 2022-02-01    28
    ##  3 CentralPark_NY 2022-03-01    31
    ##  4 CentralPark_NY 2022-04-01    30
    ##  5 CentralPark_NY 2022-05-01    31
    ##  6 CentralPark_NY 2022-06-01    30
    ##  7 CentralPark_NY 2022-07-01    31
    ##  8 CentralPark_NY 2022-08-01    31
    ##  9 CentralPark_NY 2022-09-01    30
    ## 10 CentralPark_NY 2022-10-01    31
    ## # ℹ 53 more rows

``` r
weather_df |>
  group_by(month) |>
  summarize(n_obs = n())
```

    ## # A tibble: 21 × 2
    ##    month      n_obs
    ##    <date>     <int>
    ##  1 2022-01-01    93
    ##  2 2022-02-01    84
    ##  3 2022-03-01    93
    ##  4 2022-04-01    90
    ##  5 2022-05-01    93
    ##  6 2022-06-01    90
    ##  7 2022-07-01    93
    ##  8 2022-08-01    93
    ##  9 2022-09-01    90
    ## 10 2022-10-01    93
    ## # ℹ 11 more rows
…
``` r
weather_df |>
  count(name, month) |>
  pivot_wider(
    names_from = name, 
    values_from = n
  )
```

    ## # A tibble: 21 × 4
    ##    month      CentralPark_NY Molokai_HI Waterhole_WA
    ##    <date>              <int>      <int>        <int>
    ##  1 2022-01-01             31         31           31
    ##  2 2022-02-01             28         28           28
    ##  3 2022-03-01             31         31           31
    ##  4 2022-04-01             30         30           30
    ##  5 2022-05-01             31         31           31
    ##  6 2022-06-01             30         30           30
    ##  7 2022-07-01             31         31           31
    ##  8 2022-08-01             31         31           31
    ##  9 2022-09-01             30         30           30
    ## 10 2022-10-01             31         31           31
    ## # ℹ 11 more rows
…
